Trab4/part3/simulation/qsim/Counter_Demo.msim.vcd
$comment
	File created using the following command:
		vcd file Counter_Demo.msim.vcd -direction
$end
$date
	Fri Apr 16 08:53:55 2021
$end
$version
	ModelSim Version 10.5b
$end
$timescale
	1ps
$end

$scope module counterupdown4_vhd_vec_tst $end
$var wire 1 ! clk $end
$var wire 1 " count [3] $end
$var wire 1 # count [2] $end
$var wire 1 $ count [1] $end
$var wire 1 % count [0] $end
$var wire 1 & reset $end
$var wire 1 ' upDown $end

$scope module i1 $end
$var wire 1 ( gnd $end
$var wire 1 ) vcc $end
$var wire 1 * unknown $end
$var wire 1 + devoe $end
$var wire 1 , devclrn $end
$var wire 1 - devpor $end
$var wire 1 . ww_devoe $end
$var wire 1 / ww_devclrn $end
$var wire 1 0 ww_devpor $end
$var wire 1 1 ww_clk $end
$var wire 1 2 ww_upDown $end
$var wire 1 3 ww_reset $end
$var wire 1 4 ww_count [3] $end
$var wire 1 5 ww_count [2] $end
$var wire 1 6 ww_count [1] $end
$var wire 1 7 ww_count [0] $end
$var wire 1 8 \count[0]~output_o\ $end
$var wire 1 9 \count[1]~output_o\ $end
$var wire 1 : \count[2]~output_o\ $end
$var wire 1 ; \count[3]~output_o\ $end
$var wire 1 < \clk~input_o\ $end
$var wire 1 = \reset~input_o\ $end
$var wire 1 > \s_count~3_combout\ $end
$var wire 1 ? \upDown~input_o\ $end
$var wire 1 @ \s_count[1]~5_cout\ $end
$var wire 1 A \s_count[1]~6_combout\ $end
$var wire 1 B \s_count[1]~7\ $end
$var wire 1 C \s_count[2]~8_combout\ $end
$var wire 1 D \s_count[2]~9\ $end
$var wire 1 E \s_count[3]~10_combout\ $end
$var wire 1 F s_count [3] $end
$var wire 1 G s_count [2] $end
$var wire 1 H s_count [1] $end
$var wire 1 I s_count [0] $end
$upscope $end
$upscope $end
$enddefinitions $end
#0
$dumpvars
0!
0&
1'
0(
1)
x*
1+
1,
1-
1.
1/
10
01
12
03
08
09
0:
0;
0<
0=
1>
1?
0@
0A
1B
0C
0D
0E
04
05
06
07
0F
0G
0H
0I
0"
0#
0$
0%
$end
#10000
1!
11
1<
1I
0>
1@
1A
18
17
1%
#20000
0!
01
0<
#30000
1!
11
1<
0I
1H
0A
0B
1>
0@
1A
1B
1C
19
08
0C
16
07
0%
1$
#40000
0!
01
0<
#50000
1!
11
1<
1I
0>
1@
0A
0B
18
1C
17
1%
#60000
0!
1&
0'
01
13
02
0?
1=
0<
1A
0C
1D
1E
0E
#70000
1!
11
1<
0I
0H
0A
0@
1A
1B
09
08
1C
0D
06
07
0%
0$
1E
#80000
0!
01
0<
#90000
1!
11
1<
#100000
0!
1'
01
12
1?
0<
0A
0C
0E
#110000
1!
11
1<
#120000
0!
01
0<
#130000
1!
11
1<
#140000
0!
01
0<
#150000
1!
11
1<
#160000
0!
0'
01
02
0?
0<
1A
1C
1E
#170000
1!
11
1<
#180000
0!
01
0<
#190000
1!
11
1<
#200000
0!
0&
01
03
0=
0<
1>
#210000
1!
11
1<
1I
1H
1G
1F
0E
0C
1D
0A
0B
0>
1@
1A
1C
1E
1;
1:
19
18
14
15
16
17
1%
1$
1#
1"
#220000
0!
01
0<
#230000
1!
11
1<
0I
1>
0@
0A
08
07
0%
#240000
0!
01
0<
#250000
1!
11
1<
1I
0H
1A
1B
0>
1@
0A
0B
0C
09
18
1C
06
17
1%
0$
#260000
0!
01
0<
#270000
1!
11
1<
0I
1>
0@
1A
1B
08
0C
07
0%
#280000
0!
01
0<
#290000
1!
11
1<
1I
1H
0G
1C
0D
0A
0B
0>
1@
1A
0C
1D
0E
0:
19
18
1E
05
16
17
1%
1$
0#
#300000
0!
01
0<
#310000
1!
11
1<
0I
1>
0@
0A
08
07
0%
#320000
0!
01
0<
#330000
1!
11
1<
1I
0H
1A
1B
0>
1@
0A
0B
1C
0D
09
18
0E
0C
1D
06
17
1%
0$
1E
#340000
0!
01
0<
#350000
1!
11
1<
0I
1>
0@
1A
1B
08
1C
0D
07
0%
0E
#360000
0!
01
0<
#370000
1!
11
1<
1I
1H
1G
0F
1E
0C
1D
0A
0B
0>
1@
1A
1C
0E
0;
1:
19
18
04
15
16
17
1%
1$
1#
0"
#380000
0!
01
0<
#390000
1!
11
1<
0I
1>
0@
0A
08
07
0%
#400000
0!
01
0<
#410000
1!
11
1<
1I
0H
1A
1B
0>
1@
0A
0B
0C
09
18
1C
06
17
1%
0$
#420000
0!
01
0<
#430000
1!
11
1<
0I
1>
0@
1A
1B
08
0C
07
0%
#440000
0!
01
0<
#450000
1!
11
1<
1I
1H
0G
1C
0D
0A
0B
0>
1@
1A
0C
1D
1E
0:
19
18
0E
05
16
17
1%
1$
0#
#460000
0!
01
0<
#470000
1!
11
1<
0I
1>
0@
0A
08
07
0%
#480000
0!
1'
01
12
1?
0<
1A
1B
1C
0D
1E
0E
0C
#490000
1!
11
1<
1I
0>
1@
0A
0B
18
1C
17
1%
#500000
0!
01
0<
#510000
1!
11
1<
0I
0H
1G
0C
1D
1A
1B
1>
0@
0A
1C
0D
1E
1:
09
08
0E
15
06
07
0%
0$
1#
#520000
0!
01
0<
#530000
1!
11
1<
1I
0>
1@
1A
18
17
1%
#540000
0!
01
0<
#550000
1!
11
1<
0I
1H
0A
0B
1>
0@
1A
1B
0C
1D
19
08
1E
1C
0D
16
07
0%
1$
0E
#560000
0!
1&
01
13
1=
0<
0>
#570000
1!
11
1<
0H
0G
0C
0A
0:
09
05
06
0$
0#
#580000
0!
01
0<
#590000
1!
11
1<
#600000
0!
01
0<
#610000
1!
11
1<
#620000
0!
01
0<
#630000
1!
11
1<
#640000
0!
0'
01
02
0?
0<
1A
1C
1E
#650000
1!
11
1<
#660000
0!
01
0<
#670000
1!
11
1<
#680000
0!
01
0<
#690000
1!
11
1<
#700000
0!
01
0<
#710000
1!
11
1<
#720000
0!
0&
01
03
0=
0<
1>
#730000
1!
11
1<
1I
1H
1G
1F
0E
0C
1D
0A
0B
0>
1@
1A
1C
1E
1;
1:
19
18
14
15
16
17
1%
1$
1#
1"
#740000
0!
01
0<
#750000
1!
11
1<
0I
1>
0@
0A
08
07
0%
#760000
0!
01
0<
#770000
1!
11
1<
1I
0H
1A
1B
0>
1@
0A
0B
0C
09
18
1C
06
17
1%
0$
#780000
0!
01
0<
#790000
1!
11
1<
0I
1>
0@
1A
1B
08
0C
07
0%
#800000
0!
01
0<
#810000
1!
11
1<
1I
1H
0G
1C
0D
0A
0B
0>
1@
1A
0C
1D
0E
0:
19
18
1E
05
16
17
1%
1$
0#
#820000
0!
01
0<
#830000
1!
11
1<
0I
1>
0@
0A
08
07
0%
#840000
0!
01
0<
#850000
1!
11
1<
1I
0H
1A
1B
0>
1@
0A
0B
1C
0D
09
18
0E
0C
1D
06
17
1%
0$
1E
#860000
0!
1'
01
12
1?
0<
1A
1B
1C
0D
0E
1E
0C
#870000
1!
11
1<
0I
1H
0A
0B
1>
0@
1A
1B
1C
19
08
0C
16
07
0%
1$
#880000
0!
01
0<
#890000
1!
11
1<
1I
0>
1@
0A
0B
18
1C
17
1%
#900000
0!
01
0<
#910000
1!
11
1<
0I
0H
1G
0C
1D
1A
1B
1>
0@
0A
1C
0D
0E
1:
09
08
1E
15
06
07
0%
0$
1#
#920000
0!
01
0<
#930000
1!
11
1<
1I
0>
1@
1A
18
17
1%
#940000
0!
01
0<
#950000
1!
11
1<
0I
1H
0A
0B
1>
0@
1A
1B
0C
1D
19
08
0E
1C
0D
16
07
0%
1$
1E
#960000
0!
01
0<
#970000
1!
11
1<
1I
0>
1@
0A
0B
18
0C
1D
17
1%
0E
#980000
0!
01
0<
#990000
1!
11
1<
0I
0H
0G
0F
1E
1C
0D
1A
1B
1>
0@
0A
0C
0E
0;
0:
09
08
04
05
06
07
0%
0$
0#
0"
