FinalProject/Fase1/simulation/qsim/DigitalClock_1.msim.vcd
$comment
	File created using the following command:
		vcd file DigitalClock_1.msim.vcd -direction
$end
$date
	Tue Jun 15 16:53:12 2021
$end
$version
	ModelSim Version 2020.1
$end
$timescale
	1ps
$end

$scope module registern_vhd_vec_tst $end
$var wire 1 ! clk $end
$var wire 1 " dataIn [6] $end
$var wire 1 # dataIn [5] $end
$var wire 1 $ dataIn [4] $end
$var wire 1 % dataIn [3] $end
$var wire 1 & dataIn [2] $end
$var wire 1 ' dataIn [1] $end
$var wire 1 ( dataIn [0] $end
$var wire 1 ) dataOut [6] $end
$var wire 1 * dataOut [5] $end
$var wire 1 + dataOut [4] $end
$var wire 1 , dataOut [3] $end
$var wire 1 - dataOut [2] $end
$var wire 1 . dataOut [1] $end
$var wire 1 / dataOut [0] $end
$var wire 1 0 rst $end
$var wire 1 1 wrEn $end

$scope module i1 $end
$var wire 1 2 gnd $end
$var wire 1 3 vcc $end
$var wire 1 4 unknown $end
$var wire 1 5 devoe $end
$var wire 1 6 devclrn $end
$var wire 1 7 devpor $end
$var wire 1 8 ww_devoe $end
$var wire 1 9 ww_devclrn $end
$var wire 1 : ww_devpor $end
$var wire 1 ; ww_clk $end
$var wire 1 < ww_wrEn $end
$var wire 1 = ww_rst $end
$var wire 1 > ww_dataIn [6] $end
$var wire 1 ? ww_dataIn [5] $end
$var wire 1 @ ww_dataIn [4] $end
$var wire 1 A ww_dataIn [3] $end
$var wire 1 B ww_dataIn [2] $end
$var wire 1 C ww_dataIn [1] $end
$var wire 1 D ww_dataIn [0] $end
$var wire 1 E ww_dataOut [6] $end
$var wire 1 F ww_dataOut [5] $end
$var wire 1 G ww_dataOut [4] $end
$var wire 1 H ww_dataOut [3] $end
$var wire 1 I ww_dataOut [2] $end
$var wire 1 J ww_dataOut [1] $end
$var wire 1 K ww_dataOut [0] $end
$var wire 1 L \dataOut[0]~output_o\ $end
$var wire 1 M \dataOut[1]~output_o\ $end
$var wire 1 N \dataOut[2]~output_o\ $end
$var wire 1 O \dataOut[3]~output_o\ $end
$var wire 1 P \dataOut[4]~output_o\ $end
$var wire 1 Q \dataOut[5]~output_o\ $end
$var wire 1 R \dataOut[6]~output_o\ $end
$var wire 1 S \clk~input_o\ $end
$var wire 1 T \dataIn[0]~input_o\ $end
$var wire 1 U \rst~input_o\ $end
$var wire 1 V \dataOut~0_combout\ $end
$var wire 1 W \wrEn~input_o\ $end
$var wire 1 X \dataOut[0]~1_combout\ $end
$var wire 1 Y \dataOut[0]~reg0_q\ $end
$var wire 1 Z \dataIn[1]~input_o\ $end
$var wire 1 [ \dataOut~2_combout\ $end
$var wire 1 \ \dataOut[1]~reg0_q\ $end
$var wire 1 ] \dataIn[2]~input_o\ $end
$var wire 1 ^ \dataOut~3_combout\ $end
$var wire 1 _ \dataOut[2]~reg0_q\ $end
$var wire 1 ` \dataIn[3]~input_o\ $end
$var wire 1 a \dataOut~4_combout\ $end
$var wire 1 b \dataOut[3]~reg0_q\ $end
$var wire 1 c \dataIn[4]~input_o\ $end
$var wire 1 d \dataOut~5_combout\ $end
$var wire 1 e \dataOut[4]~reg0_q\ $end
$var wire 1 f \dataIn[5]~input_o\ $end
$var wire 1 g \dataOut~6_combout\ $end
$var wire 1 h \dataOut[5]~reg0_q\ $end
$var wire 1 i \dataIn[6]~input_o\ $end
$var wire 1 j \dataOut~7_combout\ $end
$var wire 1 k \dataOut[6]~reg0_q\ $end
$upscope $end
$upscope $end
$enddefinitions $end
#0
$dumpvars
0!
00
01
02
13
x4
15
16
17
18
19
1:
0;
0<
0=
0L
0M
0N
0O
0P
0Q
0R
0S
1T
0U
1V
0W
0X
0Y
1Z
1[
0\
1]
1^
0_
1`
1a
0b
1c
1d
0e
1f
1g
0h
1i
1j
0k
1"
1#
1$
1%
1&
1'
1(
1>
1?
1@
1A
1B
1C
1D
0E
0F
0G
0H
0I
0J
0K
0)
0*
0+
0,
0-
0.
0/
$end
#5000
1!
1;
1S
#10000
0!
0;
0S
#15000
1!
1;
1S
#20000
0!
0;
0S
#25000
1!
1;
1S
#30000
0!
0;
0S
#35000
1!
1;
1S
#40000
0!
0;
0S
#45000
1!
1;
1S
#50000
0!
0;
0S
#55000
1!
1;
1S
#60000
0!
0;
0S
#65000
1!
1;
1S
#70000
0!
11
0;
1<
1W
0S
1X
#75000
1!
1;
1S
1Y
1\
1_
1b
1e
1h
1k
1R
1Q
1P
1O
1N
1M
1L
1E
1F
1G
1H
1I
1J
1K
1/
1.
1-
1,
1+
1*
1)
#80000
0!
0;
0S
#85000
1!
1;
1S
#90000
0!
0;
0S
#95000
1!
1;
1S
#100000
0!
0;
0S
#105000
1!
1;
1S
#110000
0!
0;
0S
#115000
1!
1;
1S
#120000
0!
0;
0S
#125000
1!
1;
1S
#130000
0!
0;
0S
#135000
1!
1;
1S
#140000
0!
0;
0S
#145000
1!
1;
1S
#150000
0!
0;
0S
#155000
1!
1;
1S
#160000
0!
0;
0S
#165000
1!
1;
1S
#170000
0!
0;
0S
#175000
1!
1;
1S
#180000
0!
0;
0S
#185000
1!
1;
1S
#190000
0!
0"
0#
0$
0%
0&
0'
0(
0;
0D
0C
0B
0A
0@
0?
0>
0i
0f
0c
0`
0]
0Z
0T
0S
0V
0[
0^
0a
0d
0g
0j
#195000
1!
1;
1S
0Y
0\
0_
0b
0e
0h
0k
0R
0Q
0P
0O
0N
0M
0L
0E
0F
0G
0H
0I
0J
0K
0/
0.
0-
0,
0+
0*
0)
#200000
0!
0;
0S
#205000
1!
1;
1S
#210000
0!
0;
0S
#215000
1!
1;
1S
#220000
0!
0;
0S
#225000
1!
1;
1S
#230000
0!
0;
0S
#235000
1!
1;
1S
#240000
0!
0;
0S
#245000
1!
1;
1S
#250000
0!
0;
0S
#255000
1!
1;
1S
#260000
0!
1"
1#
1$
1%
01
0;
1A
1@
1?
1>
0<
0W
1i
1f
1c
1`
0S
1a
1d
1g
1j
0X
#265000
1!
1;
1S
#270000
0!
0;
0S
#275000
1!
1;
1S
#280000
0!
0;
0S
#285000
1!
1;
1S
#290000
0!
0;
0S
#295000
1!
1;
1S
#300000
0!
11
0;
1<
1W
0S
1X
#305000
1!
1;
1S
1b
1e
1h
1k
1R
1Q
1P
1O
1E
1F
1G
1H
1,
1+
1*
1)
#310000
0!
0;
0S
#315000
1!
1;
1S
#320000
0!
0;
0S
#325000
1!
1;
1S
#330000
0!
0;
0S
#335000
1!
1;
1S
#340000
0!
0;
0S
#345000
1!
1;
1S
#350000
0!
0;
0S
#355000
1!
1;
1S
#360000
0!
0;
0S
#365000
1!
1;
1S
#370000
0!
0;
0S
#375000
1!
1;
1S
#380000
0!
0;
0S
#385000
1!
1;
1S
#390000
0!
0;
0S
#395000
1!
1;
1S
#400000
0!
0;
0S
#405000
1!
1;
1S
#410000
0!
0;
0S
#415000
1!
1;
1S
#420000
0!
0;
0S
#425000
1!
1;
1S
#430000
0!
0;
0S
#435000
1!
1;
1S
#440000
0!
0"
0#
0$
1&
1'
1(
0;
1D
1C
1B
0@
0?
0>
0i
0f
0c
1]
1Z
1T
0S
1V
1[
1^
0d
0g
0j
#445000
1!
1;
1S
1Y
1\
1_
0e
0h
0k
0R
0Q
0P
1N
1M
1L
0E
0F
0G
1I
1J
1K
1/
1.
1-
0+
0*
0)
#450000
0!
0;
0S
#455000
1!
1;
1S
#460000
0!
0;
0S
#465000
1!
1;
1S
#470000
0!
0;
0S
#475000
1!
1;
1S
#480000
0!
0;
0S
#485000
1!
1;
1S
#490000
0!
0;
0S
#495000
1!
1;
1S
#500000
0!
0;
0S
#505000
1!
1;
1S
#510000
0!
0;
0S
#515000
1!
1;
1S
#520000
0!
0;
0S
#525000
1!
1;
1S
#530000
0!
0;
0S
#535000
1!
1;
1S
#540000
0!
0;
0S
#545000
1!
1;
1S
#550000
0!
0;
0S
#555000
1!
1;
1S
#560000
0!
0;
0S
#565000
1!
1;
1S
#570000
0!
0;
0S
#575000
1!
1;
1S
#580000
0!
01
0;
0<
0W
0S
0X
#585000
1!
1;
1S
#590000
0!
0;
0S
#595000
1!
1;
1S
#600000
0!
0;
0S
#605000
1!
1;
1S
#610000
0!
0;
0S
#615000
1!
1;
1S
#620000
0!
0;
0S
#625000
1!
1;
1S
#630000
0!
10
0;
1=
1U
0S
0V
1X
0[
0^
0a
1j
#635000
1!
1;
1S
0Y
0\
0_
0b
1k
1R
0O
0N
0M
0L
1E
0H
0I
0J
0K
0/
0.
0-
0,
1)
#640000
0!
0;
0S
#645000
1!
1;
1S
#650000
0!
0;
0S
#655000
1!
1;
1S
#660000
0!
0;
0S
#665000
1!
1;
1S
#670000
0!
1"
0&
0'
0%
0;
0C
0B
0A
1>
1i
0`
0]
0Z
0S
#675000
1!
1;
1S
#680000
0!
0;
0S
#685000
1!
1;
1S
#690000
0!
0;
0S
#695000
1!
1;
1S
#700000
0!
0;
0S
#705000
1!
1;
1S
#710000
0!
0;
0S
#715000
1!
1;
1S
#720000
0!
00
0;
0=
0U
0S
1V
0X
#725000
1!
1;
1S
#730000
0!
0;
0S
#735000
1!
1;
1S
#740000
0!
0;
0S
#745000
1!
1;
1S
#750000
0!
11
0;
1<
1W
0S
1X
#755000
1!
1;
1S
1Y
1L
1K
1/
#760000
0!
0;
0S
#765000
1!
1;
1S
#770000
0!
0;
0S
#775000
1!
1;
1S
#780000
0!
0;
0S
#785000
1!
1;
1S
#790000
0!
0;
0S
#795000
1!
1;
1S
#800000
0!
0;
0S
#805000
1!
1;
1S
#810000
0!
0;
0S
#815000
1!
1;
1S
#820000
0!
0;
0S
#825000
1!
1;
1S
#830000
0!
0;
0S
#835000
1!
1;
1S
#840000
0!
0;
0S
#845000
1!
1;
1S
#850000
0!
0;
0S
#855000
1!
1;
1S
#860000
0!
0"
1&
1%
1#
0(
0;
0D
1B
1A
1?
0>
0i
1f
1`
1]
0T
0S
0V
1^
1a
1g
0j
#865000
1!
1;
1S
0Y
1_
1b
1h
0k
0R
1Q
1O
1N
0L
0E
1F
1H
1I
0K
0/
1-
1,
1*
0)
#870000
0!
0;
0S
#875000
1!
1;
1S
#880000
0!
0;
0S
#885000
1!
1;
1S
#890000
0!
0;
0S
#895000
1!
1;
1S
#900000
0!
0;
0S
#905000
1!
1;
1S
#910000
0!
0;
0S
#915000
1!
1;
1S
#920000
0!
0;
0S
#925000
1!
1;
1S
#930000
0!
0;
0S
#935000
1!
1;
1S
#940000
0!
0;
0S
#945000
1!
1;
1S
#950000
0!
0;
0S
#955000
1!
1;
1S
#960000
0!
0;
0S
#965000
1!
1;
1S
#970000
0!
0;
0S
#975000
1!
1;
1S
#980000
0!
0;
0S
#985000
1!
1;
1S
#990000
0!
0;
0S
#995000
1!
1;
1S
