Trab4/part4/simulation/qsim/FreqDivider_Demo.msim.vcd
$comment
	File created using the following command:
		vcd file FreqDivider_Demo.msim.vcd -direction
$end
$date
	Fri Apr 16 09:36:20 2021
$end
$version
	ModelSim Version 10.5b
$end
$timescale
	1ps
$end

$scope module freqdivider_vhd_vec_tst $end
$var wire 1 ! clkIn $end
$var wire 1 " clkOut $end
$var wire 1 # k [31] $end
$var wire 1 $ k [30] $end
$var wire 1 % k [29] $end
$var wire 1 & k [28] $end
$var wire 1 ' k [27] $end
$var wire 1 ( k [26] $end
$var wire 1 ) k [25] $end
$var wire 1 * k [24] $end
$var wire 1 + k [23] $end
$var wire 1 , k [22] $end
$var wire 1 - k [21] $end
$var wire 1 . k [20] $end
$var wire 1 / k [19] $end
$var wire 1 0 k [18] $end
$var wire 1 1 k [17] $end
$var wire 1 2 k [16] $end
$var wire 1 3 k [15] $end
$var wire 1 4 k [14] $end
$var wire 1 5 k [13] $end
$var wire 1 6 k [12] $end
$var wire 1 7 k [11] $end
$var wire 1 8 k [10] $end
$var wire 1 9 k [9] $end
$var wire 1 : k [8] $end
$var wire 1 ; k [7] $end
$var wire 1 < k [6] $end
$var wire 1 = k [5] $end
$var wire 1 > k [4] $end
$var wire 1 ? k [3] $end
$var wire 1 @ k [2] $end
$var wire 1 A k [1] $end
$var wire 1 B k [0] $end

$scope module i1 $end
$var wire 1 C gnd $end
$var wire 1 D vcc $end
$var wire 1 E unknown $end
$var wire 1 F devoe $end
$var wire 1 G devclrn $end
$var wire 1 H devpor $end
$var wire 1 I ww_devoe $end
$var wire 1 J ww_devclrn $end
$var wire 1 K ww_devpor $end
$var wire 1 L ww_clkIn $end
$var wire 1 M ww_k [31] $end
$var wire 1 N ww_k [30] $end
$var wire 1 O ww_k [29] $end
$var wire 1 P ww_k [28] $end
$var wire 1 Q ww_k [27] $end
$var wire 1 R ww_k [26] $end
$var wire 1 S ww_k [25] $end
$var wire 1 T ww_k [24] $end
$var wire 1 U ww_k [23] $end
$var wire 1 V ww_k [22] $end
$var wire 1 W ww_k [21] $end
$var wire 1 X ww_k [20] $end
$var wire 1 Y ww_k [19] $end
$var wire 1 Z ww_k [18] $end
$var wire 1 [ ww_k [17] $end
$var wire 1 \ ww_k [16] $end
$var wire 1 ] ww_k [15] $end
$var wire 1 ^ ww_k [14] $end
$var wire 1 _ ww_k [13] $end
$var wire 1 ` ww_k [12] $end
$var wire 1 a ww_k [11] $end
$var wire 1 b ww_k [10] $end
$var wire 1 c ww_k [9] $end
$var wire 1 d ww_k [8] $end
$var wire 1 e ww_k [7] $end
$var wire 1 f ww_k [6] $end
$var wire 1 g ww_k [5] $end
$var wire 1 h ww_k [4] $end
$var wire 1 i ww_k [3] $end
$var wire 1 j ww_k [2] $end
$var wire 1 k ww_k [1] $end
$var wire 1 l ww_k [0] $end
$var wire 1 m ww_clkOut $end
$var wire 1 n \clkOut~output_o\ $end
$var wire 1 o \clkIn~input_o\ $end
$var wire 1 p \k[1]~input_o\ $end
$var wire 1 q \k[2]~input_o\ $end
$var wire 1 r \s_counter[0]~31_combout\ $end
$var wire 1 s \k[0]~input_o\ $end
$var wire 1 t \Add0~1\ $end
$var wire 1 u \Add0~2_combout\ $end
$var wire 1 v \Add0~0_combout\ $end
$var wire 1 w \Equal0~0_combout\ $end
$var wire 1 x \s_counter[1]~34\ $end
$var wire 1 y \s_counter[2]~35_combout\ $end
$var wire 1 z \s_counter[2]~36\ $end
$var wire 1 { \s_counter[3]~37_combout\ $end
$var wire 1 | \k[3]~input_o\ $end
$var wire 1 } \Add0~3\ $end
$var wire 1 ~ \Add0~5\ $end
$var wire 1 !! \Add0~6_combout\ $end
$var wire 1 "! \Add0~4_combout\ $end
$var wire 1 #! \Equal0~1_combout\ $end
$var wire 1 $! \Equal0~2_combout\ $end
$var wire 1 %! \s_counter[3]~38\ $end
$var wire 1 &! \s_counter[4]~39_combout\ $end
$var wire 1 '! \s_counter[4]~40\ $end
$var wire 1 (! \s_counter[5]~41_combout\ $end
$var wire 1 )! \k[5]~input_o\ $end
$var wire 1 *! \k[4]~input_o\ $end
$var wire 1 +! \Add0~7\ $end
$var wire 1 ,! \Add0~9\ $end
$var wire 1 -! \Add0~10_combout\ $end
$var wire 1 .! \Add0~8_combout\ $end
$var wire 1 /! \Equal0~3_combout\ $end
$var wire 1 0! \s_counter[5]~42\ $end
$var wire 1 1! \s_counter[6]~43_combout\ $end
$var wire 1 2! \s_counter[6]~44\ $end
$var wire 1 3! \s_counter[7]~45_combout\ $end
$var wire 1 4! \k[7]~input_o\ $end
$var wire 1 5! \k[6]~input_o\ $end
$var wire 1 6! \Add0~11\ $end
$var wire 1 7! \Add0~13\ $end
$var wire 1 8! \Add0~14_combout\ $end
$var wire 1 9! \Add0~12_combout\ $end
$var wire 1 :! \Equal0~4_combout\ $end
$var wire 1 ;! \s_counter[7]~46\ $end
$var wire 1 <! \s_counter[8]~47_combout\ $end
$var wire 1 =! \s_counter[8]~48\ $end
$var wire 1 >! \s_counter[9]~49_combout\ $end
$var wire 1 ?! \k[9]~input_o\ $end
$var wire 1 @! \k[8]~input_o\ $end
$var wire 1 A! \Add0~15\ $end
$var wire 1 B! \Add0~17\ $end
$var wire 1 C! \Add0~18_combout\ $end
$var wire 1 D! \Add0~16_combout\ $end
$var wire 1 E! \Equal0~5_combout\ $end
$var wire 1 F! \s_counter[9]~50\ $end
$var wire 1 G! \s_counter[10]~51_combout\ $end
$var wire 1 H! \s_counter[10]~52\ $end
$var wire 1 I! \s_counter[11]~53_combout\ $end
$var wire 1 J! \k[11]~input_o\ $end
$var wire 1 K! \k[10]~input_o\ $end
$var wire 1 L! \Add0~19\ $end
$var wire 1 M! \Add0~21\ $end
$var wire 1 N! \Add0~22_combout\ $end
$var wire 1 O! \Add0~20_combout\ $end
$var wire 1 P! \Equal0~6_combout\ $end
$var wire 1 Q! \s_counter[11]~54\ $end
$var wire 1 R! \s_counter[12]~55_combout\ $end
$var wire 1 S! \s_counter[12]~56\ $end
$var wire 1 T! \s_counter[13]~57_combout\ $end
$var wire 1 U! \k[13]~input_o\ $end
$var wire 1 V! \k[12]~input_o\ $end
$var wire 1 W! \Add0~23\ $end
$var wire 1 X! \Add0~25\ $end
$var wire 1 Y! \Add0~26_combout\ $end
$var wire 1 Z! \Add0~24_combout\ $end
$var wire 1 [! \Equal0~7_combout\ $end
$var wire 1 \! \s_counter[13]~58\ $end
$var wire 1 ]! \s_counter[14]~59_combout\ $end
$var wire 1 ^! \s_counter[14]~60\ $end
$var wire 1 _! \s_counter[15]~61_combout\ $end
$var wire 1 `! \k[15]~input_o\ $end
$var wire 1 a! \k[14]~input_o\ $end
$var wire 1 b! \Add0~27\ $end
$var wire 1 c! \Add0~29\ $end
$var wire 1 d! \Add0~30_combout\ $end
$var wire 1 e! \Add0~28_combout\ $end
$var wire 1 f! \Equal0~8_combout\ $end
$var wire 1 g! \Equal0~9_combout\ $end
$var wire 1 h! \Equal0~10_combout\ $end
$var wire 1 i! \s_counter[15]~62\ $end
$var wire 1 j! \s_counter[16]~63_combout\ $end
$var wire 1 k! \s_counter[16]~64\ $end
$var wire 1 l! \s_counter[17]~65_combout\ $end
$var wire 1 m! \k[17]~input_o\ $end
$var wire 1 n! \k[16]~input_o\ $end
$var wire 1 o! \Add0~31\ $end
$var wire 1 p! \Add0~33\ $end
$var wire 1 q! \Add0~34_combout\ $end
$var wire 1 r! \Add0~32_combout\ $end
$var wire 1 s! \Equal0~11_combout\ $end
$var wire 1 t! \s_counter[17]~66\ $end
$var wire 1 u! \s_counter[18]~67_combout\ $end
$var wire 1 v! \s_counter[18]~68\ $end
$var wire 1 w! \s_counter[19]~69_combout\ $end
$var wire 1 x! \k[19]~input_o\ $end
$var wire 1 y! \k[18]~input_o\ $end
$var wire 1 z! \Add0~35\ $end
$var wire 1 {! \Add0~37\ $end
$var wire 1 |! \Add0~38_combout\ $end
$var wire 1 }! \Add0~36_combout\ $end
$var wire 1 ~! \Equal0~12_combout\ $end
$var wire 1 !" \s_counter[19]~70\ $end
$var wire 1 "" \s_counter[20]~71_combout\ $end
$var wire 1 #" \s_counter[20]~72\ $end
$var wire 1 $" \s_counter[21]~73_combout\ $end
$var wire 1 %" \k[21]~input_o\ $end
$var wire 1 &" \k[20]~input_o\ $end
$var wire 1 '" \Add0~39\ $end
$var wire 1 (" \Add0~41\ $end
$var wire 1 )" \Add0~42_combout\ $end
$var wire 1 *" \Add0~40_combout\ $end
$var wire 1 +" \Equal0~13_combout\ $end
$var wire 1 ," \s_counter[21]~74\ $end
$var wire 1 -" \s_counter[22]~75_combout\ $end
$var wire 1 ." \s_counter[22]~76\ $end
$var wire 1 /" \s_counter[23]~77_combout\ $end
$var wire 1 0" \k[23]~input_o\ $end
$var wire 1 1" \k[22]~input_o\ $end
$var wire 1 2" \Add0~43\ $end
$var wire 1 3" \Add0~45\ $end
$var wire 1 4" \Add0~46_combout\ $end
$var wire 1 5" \Add0~44_combout\ $end
$var wire 1 6" \Equal0~14_combout\ $end
$var wire 1 7" \Equal0~15_combout\ $end
$var wire 1 8" \s_counter[23]~78\ $end
$var wire 1 9" \s_counter[24]~79_combout\ $end
$var wire 1 :" \s_counter[24]~80\ $end
$var wire 1 ;" \s_counter[25]~81_combout\ $end
$var wire 1 <" \k[25]~input_o\ $end
$var wire 1 =" \k[24]~input_o\ $end
$var wire 1 >" \Add0~47\ $end
$var wire 1 ?" \Add0~49\ $end
$var wire 1 @" \Add0~50_combout\ $end
$var wire 1 A" \Add0~48_combout\ $end
$var wire 1 B" \Equal0~16_combout\ $end
$var wire 1 C" \s_counter[25]~82\ $end
$var wire 1 D" \s_counter[26]~83_combout\ $end
$var wire 1 E" \s_counter[26]~84\ $end
$var wire 1 F" \s_counter[27]~85_combout\ $end
$var wire 1 G" \k[27]~input_o\ $end
$var wire 1 H" \k[26]~input_o\ $end
$var wire 1 I" \Add0~51\ $end
$var wire 1 J" \Add0~53\ $end
$var wire 1 K" \Add0~54_combout\ $end
$var wire 1 L" \Add0~52_combout\ $end
$var wire 1 M" \Equal0~17_combout\ $end
$var wire 1 N" \Equal0~18_combout\ $end
$var wire 1 O" \s_counter[27]~86\ $end
$var wire 1 P" \s_counter[28]~87_combout\ $end
$var wire 1 Q" \s_counter[28]~88\ $end
$var wire 1 R" \s_counter[29]~89_combout\ $end
$var wire 1 S" \k[29]~input_o\ $end
$var wire 1 T" \k[28]~input_o\ $end
$var wire 1 U" \Add0~55\ $end
$var wire 1 V" \Add0~57\ $end
$var wire 1 W" \Add0~58_combout\ $end
$var wire 1 X" \Add0~56_combout\ $end
$var wire 1 Y" \Equal0~19_combout\ $end
$var wire 1 Z" \s_counter[29]~90\ $end
$var wire 1 [" \s_counter[30]~91_combout\ $end
$var wire 1 \" \k[30]~input_o\ $end
$var wire 1 ]" \Add0~59\ $end
$var wire 1 ^" \Add0~60_combout\ $end
$var wire 1 _" \k[31]~input_o\ $end
$var wire 1 `" \Add0~61\ $end
$var wire 1 a" \Add0~62_combout\ $end
$var wire 1 b" \Equal0~20_combout\ $end
$var wire 1 c" \Equal0~21_combout\ $end
$var wire 1 d" \s_counter[0]~32\ $end
$var wire 1 e" \s_counter[1]~33_combout\ $end
$var wire 1 f" \clkOut~0_combout\ $end
$var wire 1 g" \clkOut~1_combout\ $end
$var wire 1 h" \clkOut~2_combout\ $end
$var wire 1 i" \clkOut~3_combout\ $end
$var wire 1 j" \clkOut~4_combout\ $end
$var wire 1 k" \clkOut~5_combout\ $end
$var wire 1 l" \Equal1~0_combout\ $end
$var wire 1 m" \clkOut~6_combout\ $end
$var wire 1 n" \clkOut~7_combout\ $end
$var wire 1 o" \clkOut~8_combout\ $end
$var wire 1 p" \clkOut~9_combout\ $end
$var wire 1 q" \clkOut~10_combout\ $end
$var wire 1 r" \clkOut~11_combout\ $end
$var wire 1 s" \clkOut~12_combout\ $end
$var wire 1 t" \clkOut~13_combout\ $end
$var wire 1 u" \clkOut~14_combout\ $end
$var wire 1 v" \clkOut~15_combout\ $end
$var wire 1 w" \clkOut~16_combout\ $end
$var wire 1 x" \clkOut~17_combout\ $end
$var wire 1 y" \clkOut~18_combout\ $end
$var wire 1 z" \clkOut~19_combout\ $end
$var wire 1 {" \clkOut~20_combout\ $end
$var wire 1 |" \clkOut~reg0_q\ $end
$var wire 1 }" s_counter [30] $end
$var wire 1 ~" s_counter [29] $end
$var wire 1 !# s_counter [28] $end
$var wire 1 "# s_counter [27] $end
$var wire 1 ## s_counter [26] $end
$var wire 1 $# s_counter [25] $end
$var wire 1 %# s_counter [24] $end
$var wire 1 &# s_counter [23] $end
$var wire 1 '# s_counter [22] $end
$var wire 1 (# s_counter [21] $end
$var wire 1 )# s_counter [20] $end
$var wire 1 *# s_counter [19] $end
$var wire 1 +# s_counter [18] $end
$var wire 1 ,# s_counter [17] $end
$var wire 1 -# s_counter [16] $end
$var wire 1 .# s_counter [15] $end
$var wire 1 /# s_counter [14] $end
$var wire 1 0# s_counter [13] $end
$var wire 1 1# s_counter [12] $end
$var wire 1 2# s_counter [11] $end
$var wire 1 3# s_counter [10] $end
$var wire 1 4# s_counter [9] $end
$var wire 1 5# s_counter [8] $end
$var wire 1 6# s_counter [7] $end
$var wire 1 7# s_counter [6] $end
$var wire 1 8# s_counter [5] $end
$var wire 1 9# s_counter [4] $end
$var wire 1 :# s_counter [3] $end
$var wire 1 ;# s_counter [2] $end
$var wire 1 <# s_counter [1] $end
$var wire 1 =# s_counter [0] $end
$upscope $end
$upscope $end
$enddefinitions $end
#0
$dumpvars
0!
0"
0C
1D
xE
1F
1G
1H
1I
1J
1K
0L
0m
0n
0o
0p
0q
1r
0s
0t
1u
1v
0w
1x
0y
0z
0{
0|
1}
0~
1!!
1"!
1#!
0$!
1%!
0&!
0'!
0(!
0)!
0*!
1+!
0,!
1-!
1.!
0/!
10!
01!
02!
03!
04!
05!
16!
07!
18!
19!
0:!
1;!
0<!
0=!
0>!
0?!
0@!
1A!
0B!
1C!
1D!
0E!
1F!
0G!
0H!
0I!
0J!
0K!
1L!
0M!
1N!
1O!
0P!
1Q!
0R!
0S!
0T!
0U!
0V!
1W!
0X!
1Y!
1Z!
0[!
1\!
0]!
0^!
0_!
0`!
0a!
1b!
0c!
1d!
1e!
0f!
0g!
0h!
1i!
0j!
0k!
0l!
0m!
0n!
1o!
0p!
1q!
1r!
0s!
1t!
0u!
0v!
0w!
0x!
0y!
1z!
0{!
1|!
1}!
0~!
1!"
0""
0#"
0$"
0%"
0&"
1'"
0("
1)"
1*"
0+"
1,"
0-"
0."
0/"
00"
01"
12"
03"
14"
15"
06"
07"
18"
09"
0:"
0;"
0<"
0="
1>"
0?"
1@"
1A"
0B"
1C"
0D"
0E"
0F"
0G"
0H"
1I"
0J"
1K"
1L"
1M"
0N"
1O"
0P"
0Q"
0R"
0S"
0T"
1U"
0V"
1W"
1X"
0Y"
1Z"
0["
0\"
1]"
1^"
0_"
0`"
1a"
0b"
0c"
0d"
0e"
1f"
1g"
1h"
1i"
1j"
1k"
0l"
1m"
1n"
1o"
1p"
1q"
1r"
1s"
1t"
1u"
1v"
1w"
1x"
1y"
1z"
1{"
0|"
0#
0$
0%
0&
0'
0(
0)
0*
0+
0,
0-
0.
0/
00
01
02
03
04
05
06
07
08
09
0:
0;
0<
0=
0>
0?
0@
0A
0B
0M
0N
0O
0P
0Q
0R
0S
0T
0U
0V
0W
0X
0Y
0Z
0[
0\
0]
0^
0_
0`
0a
0b
0c
0d
0e
0f
0g
0h
0i
0j
0k
0l
0}"
0~"
0!#
0"#
0##
0$#
0%#
0&#
0'#
0(#
0)#
0*#
0+#
0,#
0-#
0.#
0/#
00#
01#
02#
03#
04#
05#
06#
07#
08#
09#
0:#
0;#
0<#
0=#
$end
#10000
1!
1L
1o
1=#
1|"
0r
1d"
0f"
0j"
1e"
1n
0p"
1m
1"
#20000
0!
0L
0o
#30000
1!
1L
1o
0=#
1<#
0e"
0x
1r
0d"
1e"
1x
1y
0y
#40000
0!
1B
0L
1l
1s
0o
0v
1t
0u
0}
1w
0"!
1~
0w
0!!
0+!
0#!
0.!
1,!
0-!
06!
09!
17!
1/!
08!
0A!
0D!
1B!
1:!
0C!
0L!
0O!
1M!
1E!
0N!
0W!
0Z!
1X!
1P!
0Y!
0b!
0e!
1c!
1[!
0d!
0o!
0r!
1p!
1f!
1g!
0q!
0z!
0}!
1{!
1s!
0|!
0'"
0*"
1("
1~!
0)"
02"
05"
13"
1+"
04"
0>"
0A"
1?"
16"
17"
0@"
0I"
0L"
1J"
1B"
0K"
0U"
0M"
0X"
1V"
1N"
0W"
0]"
0^"
1`"
1Y"
0a"
1b"
#50000
1!
1L
1o
1=#
0r
1d"
0e"
0x
1y
#60000
0!
0L
0o
#70000
1!
1L
1o
1;#
0=#
0<#
1e"
1x
1r
0d"
1w
1f"
0y
1z
1#!
0g"
1{
0e"
1y
0z
0{
#80000
0!
0B
1A
0L
0l
1k
1p
0s
0o
1v
0t
1u
0f"
0u
0w
#90000
1!
1L
1o
1=#
0r
1d"
1w
1f"
1e"
#100000
0!
0L
0o
#110000
1!
1L
1o
0=#
1<#
0e"
0x
1r
0d"
0w
0f"
1e"
1x
0y
1z
1{
1y
0z
0{
#120000
0!
1B
0L
1l
1s
0o
0v
1t
1u
1w
#130000
1!
1L
1o
1=#
0r
1d"
0w
0e"
0x
0y
1z
1{
#140000
0!
0L
0o
#150000
1!
1L
1o
0;#
1:#
0=#
0<#
1e"
1x
1r
0d"
0{
0%!
1y
0z
0#!
1{
1%!
1&!
0e"
0y
0&!
#160000
0!
0B
0A
1@
0L
0l
0k
1j
1q
0p
0s
0o
1v
0t
0u
1"!
1#!
1u
1}
0"!
0#!
#170000
1!
1L
1o
1=#
0r
1d"
1e"
#180000
0!
0L
0o
#190000
1!
1L
1o
0=#
1<#
0e"
0x
1r
0d"
1f"
1e"
1x
1y
0y
#200000
0!
1B
0L
1l
1s
0o
0v
1t
0u
0}
1w
1"!
0w
1#!
#210000
1!
1L
1o
1=#
0r
1d"
0f"
0e"
0x
1y
#220000
0!
0L
0o
#230000
1!
1L
1o
1;#
0=#
0<#
1e"
1x
1r
0d"
1w
0y
1z
0#!
0{
0%!
0e"
1y
0z
1{
1%!
1&!
0&!
#240000
0!
0B
1A
0L
0l
1k
1p
0s
0o
1v
0t
1u
0u
0w
#250000
1!
1L
1o
1=#
0r
1d"
1w
1e"
#260000
0!
0L
0o
#270000
1!
1L
1o
0=#
1<#
0e"
0x
1r
0d"
0w
1e"
1x
0y
1z
0{
0%!
1y
0z
1{
1%!
1&!
0&!
#280000
0!
1B
0L
1l
1s
0o
0v
1t
1u
1w
#290000
1!
1L
1o
1=#
0r
1d"
0w
1f"
0e"
0x
0y
1z
0{
0%!
1&!
#300000
0!
0L
0o
#310000
1!
1L
1o
0;#
0:#
19#
0=#
0<#
1e"
1x
1r
0d"
0f"
0&!
1'!
0/!
0h"
1{
1%!
1y
0z
1#!
1g"
0{
1&!
0'!
1(!
0e"
0y
0(!
#320000
0!
0B
0A
0@
1?
0L
0l
0k
0j
1i
1|
0q
0p
0s
0o
1v
0t
0u
0"!
1f"
1!!
0g"
0#!
1u
1}
1"!
0~
0!!
1#!
#330000
1!
1L
1o
1=#
0r
1d"
0f"
1e"
#340000
0!
0L
0o
#350000
1!
1L
1o
0=#
1<#
0e"
0x
1r
0d"
1e"
1x
1y
0y
#360000
0!
1B
0L
1l
1s
0o
0v
1t
0u
0}
1w
0"!
1~
0w
1!!
0#!
#370000
1!
1L
1o
1=#
0r
1d"
0e"
0x
1y
#380000
0!
0L
0o
#390000
1!
1L
1o
1;#
0=#
0<#
1e"
1x
1r
0d"
1w
1f"
0y
1z
1#!
1g"
1{
0e"
1y
0z
0{
#400000
0!
0B
1A
0L
0l
1k
1p
0s
0o
1v
0t
1u
0f"
0u
0w
#410000
1!
1L
1o
1=#
0r
1d"
1w
1f"
1e"
#420000
0!
0L
0o
#430000
1!
1L
1o
0=#
1<#
0e"
0x
1r
0d"
0w
0f"
1e"
1x
0y
1z
1{
1y
0z
0{
#440000
0!
1B
0L
1l
1s
0o
0v
1t
1u
1w
#450000
1!
1L
1o
1=#
0r
1d"
0w
0e"
0x
0y
1z
1{
#460000
0!
0L
0o
#470000
1!
1L
1o
0;#
1:#
0=#
0<#
1e"
1x
1r
0d"
0{
0%!
1y
0z
0#!
0g"
1{
1%!
0&!
1'!
0e"
0y
1(!
1&!
0'!
0(!
#480000
0!
0B
0A
1@
0L
0l
0k
1j
1q
0p
0s
0o
1v
0t
0u
1"!
1#!
1u
1}
0"!
0#!
#490000
1!
1L
1o
1=#
0r
1d"
1e"
#500000
0!
0L
0o
#510000
1!
1L
1o
0=#
1<#
0e"
0x
1r
0d"
1f"
1e"
1x
1y
0y
#520000
0!
1B
0L
1l
1s
0o
0v
1t
0u
0}
1w
1$!
1"!
0w
0$!
1#!
#530000
1!
1L
1o
1=#
0r
1d"
0f"
0e"
0x
1y
#540000
0!
0L
0o
#550000
1!
1L
1o
1;#
0=#
0<#
1e"
1x
1r
0d"
1w
0y
1z
0#!
0{
0%!
1$!
0e"
1y
0z
1{
1%!
0&!
1'!
1(!
1&!
0'!
0(!
#560000
0!
0B
1A
0L
0l
1k
1p
0s
0o
1v
0t
1u
0u
0w
0$!
#570000
1!
1L
1o
1=#
0r
1d"
1w
1$!
1e"
#580000
0!
0L
0o
#590000
1!
1L
1o
0=#
1<#
0e"
0x
1r
0d"
0w
0$!
1e"
1x
0y
1z
0{
0%!
1y
0z
1{
1%!
0&!
1'!
1(!
1&!
0'!
0(!
#600000
0!
1B
0L
1l
1s
0o
0v
1t
1u
1w
1$!
#610000
1!
1L
1o
1=#
0r
1d"
0w
1f"
0$!
0e"
0x
0y
1z
0{
0%!
0&!
1'!
1(!
#620000
0!
0L
0o
#630000
1!
1L
1o
0;#
0:#
09#
18#
0=#
0<#
1e"
1x
1r
0d"
0f"
0(!
00!
1&!
0'!
1{
1%!
1y
0z
1#!
0{
0&!
1(!
10!
11!
0e"
0y
01!
#640000
0!
0B
0A
0@
0?
1>
0L
0l
0k
0j
0i
1h
1*!
0|
0q
0p
0s
0o
1v
0t
0u
0"!
1f"
0!!
1.!
0#!
1u
1}
1"!
0~
1!!
1+!
1#!
0.!
#650000
1!
1L
1o
1=#
0r
1d"
0f"
1e"
#660000
0!
0L
0o
#670000
1!
1L
1o
0=#
1<#
0e"
0x
1r
0d"
1e"
1x
1y
0y
#680000
0!
1B
0L
1l
1s
0o
0v
1t
0u
0}
1w
0"!
1~
0w
0!!
0+!
0#!
1.!
#690000
1!
1L
1o
1=#
0r
1d"
0e"
0x
1y
#700000
0!
0L
0o
#710000
1!
1L
1o
1;#
0=#
0<#
1e"
1x
1r
0d"
1w
1f"
0y
1z
1#!
1{
0e"
1y
0z
0{
#720000
0!
0B
1A
0L
0l
1k
1p
0s
0o
1v
0t
1u
0f"
0u
0w
#730000
1!
1L
1o
1=#
0r
1d"
1w
1f"
1e"
#740000
0!
0L
0o
#750000
1!
1L
1o
0=#
1<#
0e"
0x
1r
0d"
0w
0f"
1e"
1x
0y
1z
1{
1y
0z
0{
#760000
0!
1B
0L
1l
1s
0o
0v
1t
1u
1w
#770000
1!
1L
1o
1=#
0r
1d"
0w
0e"
0x
0y
1z
1{
#780000
0!
0L
0o
#790000
1!
1L
1o
0;#
1:#
0=#
0<#
1e"
1x
1r
0d"
0{
0%!
1y
0z
0#!
1g"
1{
1%!
1&!
0e"
0y
0&!
#800000
0!
0B
0A
1@
0L
0l
0k
1j
1q
0p
0s
0o
1v
0t
0u
1"!
1#!
1u
1}
0"!
0#!
#810000
1!
1L
1o
1=#
0r
1d"
1e"
#820000
0!
0L
0o
#830000
1!
1L
1o
0=#
1<#
0e"
0x
1r
0d"
1f"
1e"
1x
1y
0y
#840000
0!
1B
0L
1l
1s
0o
0v
1t
0u
0}
1w
1"!
0w
1#!
#850000
1!
1L
1o
1=#
0r
1d"
0f"
0e"
0x
1y
#860000
0!
0L
0o
#870000
1!
1L
1o
1;#
0=#
0<#
1e"
1x
1r
0d"
1w
0y
1z
0#!
0g"
0{
0%!
0e"
1y
0z
1{
1%!
1&!
0&!
#880000
0!
0B
1A
0L
0l
1k
1p
0s
0o
1v
0t
1u
0u
0w
#890000
1!
1L
1o
1=#
0r
1d"
1w
1e"
#900000
0!
0L
0o
#910000
1!
1L
1o
0=#
1<#
0e"
0x
1r
0d"
0w
1e"
1x
0y
1z
0{
0%!
1y
0z
1{
1%!
1&!
0&!
#920000
0!
1B
0L
1l
1s
0o
0v
1t
1u
1w
#930000
1!
1L
1o
1=#
0r
1d"
0w
1f"
0e"
0x
0y
1z
0{
0%!
1&!
#940000
0!
0L
0o
#950000
1!
1L
1o
0;#
0:#
19#
0=#
0<#
1e"
1x
1r
0d"
0f"
0&!
1'!
1{
1%!
1y
0z
1#!
0{
1&!
0'!
0(!
00!
0e"
0y
11!
1(!
10!
01!
#960000
0!
0B
0A
0@
1?
0L
0l
0k
0j
1i
1|
0q
0p
0s
0o
1v
0t
0u
0"!
1f"
1!!
0#!
1u
1}
1"!
0~
0!!
1#!
#970000
1!
1L
1o
1=#
0r
1d"
0f"
1e"
#980000
0!
0L
0o
#990000
1!
1L
1o
0=#
1<#
0e"
0x
1r
0d"
1e"
1x
1y
0y
