Trab2/Part2/simulation/qsim/Mux2_1Demo.msim.vcd
$comment
	File created using the following command:
		vcd file Mux2_1Demo.msim.vcd -direction
$end
$date
	Fri Mar 19 07:54:17 2021
$end
$version
	ModelSim Version 10.5b
$end
$timescale
	1ps
$end

$scope module mux2_1_vhd_vec_tst $end
$var wire 1 ! inputs [1] $end
$var wire 1 " inputs [0] $end
$var wire 1 # output $end
$var wire 1 $ sel $end

$scope module i1 $end
$var wire 1 % gnd $end
$var wire 1 & vcc $end
$var wire 1 ' unknown $end
$var wire 1 ( devoe $end
$var wire 1 ) devclrn $end
$var wire 1 * devpor $end
$var wire 1 + ww_devoe $end
$var wire 1 , ww_devclrn $end
$var wire 1 - ww_devpor $end
$var wire 1 . ww_sel $end
$var wire 1 / ww_inputs [1] $end
$var wire 1 0 ww_inputs [0] $end
$var wire 1 1 ww_output $end
$var wire 1 2 \output~output_o\ $end
$var wire 1 3 \inputs[1]~input_o\ $end
$var wire 1 4 \inputs[0]~input_o\ $end
$var wire 1 5 \sel~input_o\ $end
$var wire 1 6 \output~0_combout\ $end
$upscope $end
$upscope $end
$enddefinitions $end
#0
$dumpvars
0#
0$
0%
1&
x'
1(
1)
1*
1+
1,
1-
0.
01
02
13
04
05
06
1!
0"
1/
00
$end
#80000
0!
1"
1$
10
0/
1.
15
03
14
#260000
0$
0.
05
16
12
11
1#
#360000
1$
1!
0"
1.
00
1/
13
04
15
#540000
0$
0!
0.
0/
03
05
06
02
01
0#
#620000
1$
1.
15
#640000
1!
1"
10
1/
13
14
16
12
11
1#
#820000
0!
0"
00
0/
03
04
06
02
01
0#
#840000
0$
0.
05
#880000
1"
10
14
16
12
11
1#
