Trab2/Part4/simulation/qsim/PEnc4_2Demo.msim.vcd
$comment
	File created using the following command:
		vcd file PEnc4_2Demo.msim.vcd -direction
$end
$date
	Fri Mar 19 09:34:36 2021
$end
$version
	ModelSim Version 10.5b
$end
$timescale
	1ps
$end

$scope module penc4_2_vhd_vec_tst $end
$var wire 1 ! input [3] $end
$var wire 1 " input [2] $end
$var wire 1 # input [1] $end
$var wire 1 $ input [0] $end
$var wire 1 % output [2] $end
$var wire 1 & output [1] $end
$var wire 1 ' output [0] $end

$scope module i1 $end
$var wire 1 ( gnd $end
$var wire 1 ) vcc $end
$var wire 1 * unknown $end
$var wire 1 + devoe $end
$var wire 1 , devclrn $end
$var wire 1 - devpor $end
$var wire 1 . ww_devoe $end
$var wire 1 / ww_devclrn $end
$var wire 1 0 ww_devpor $end
$var wire 1 1 ww_input [3] $end
$var wire 1 2 ww_input [2] $end
$var wire 1 3 ww_input [1] $end
$var wire 1 4 ww_input [0] $end
$var wire 1 5 ww_output [2] $end
$var wire 1 6 ww_output [1] $end
$var wire 1 7 ww_output [0] $end
$var wire 1 8 \output[0]~output_o\ $end
$var wire 1 9 \output[1]~output_o\ $end
$var wire 1 : \output[2]~output_o\ $end
$var wire 1 ; \input[2]~input_o\ $end
$var wire 1 < \input[3]~input_o\ $end
$var wire 1 = \input[0]~input_o\ $end
$var wire 1 > \input[1]~input_o\ $end
$var wire 1 ? \output~0_combout\ $end
$var wire 1 @ \output~1_combout\ $end
$var wire 1 A \output~2_combout\ $end
$var wire 1 B \ALT_INV_output~2_combout\ $end
$upscope $end
$upscope $end
$enddefinitions $end
#0
$dumpvars
0(
1)
x*
1+
1,
1-
1.
1/
10
08
09
0:
0;
0<
0=
0>
0?
0@
1A
0B
0!
0"
0#
0$
01
02
03
04
05
06
07
0%
0&
0'
$end
#40000
1!
11
1<
1?
1@
0A
1B
19
18
1:
16
17
15
1'
1&
1%
#80000
0!
01
0<
0?
0@
1A
0B
09
08
0:
06
07
05
0'
0&
0%
#120000
1!
11
1<
1?
1@
0A
1B
19
18
1:
16
17
15
1'
1&
1%
#160000
0!
01
0<
0?
0@
1A
0B
09
08
0:
06
07
05
0'
0&
0%
#200000
1!
11
1<
1?
1@
0A
1B
19
18
1:
16
17
15
1'
1&
1%
#240000
0!
01
0<
0?
0@
1A
0B
09
08
0:
06
07
05
0'
0&
0%
#280000
1!
11
1<
1?
1@
0A
1B
19
18
1:
16
17
15
1'
1&
1%
#400000
0!
01
0<
0?
0@
1A
0B
09
08
0:
06
07
05
0'
0&
0%
#600000
1!
11
1<
1?
1@
0A
1B
19
18
1:
16
17
15
1'
1&
1%
#640000
0!
01
0<
0?
0@
1A
0B
09
08
0:
06
07
05
0'
0&
0%
#680000
1!
11
1<
1?
1@
0A
1B
19
18
1:
16
17
15
1'
1&
1%
