Trab4/part2/simulation/qsim/RegisterDemo.msim.vcd
$comment
	File created using the following command:
		vcd file RegisterDemo.msim.vcd -direction
$end
$date
	Fri Apr 16 08:11:08 2021
$end
$version
	ModelSim Version 10.5b
$end
$timescale
	1ps
$end

$scope module register8_vhd_vec_tst $end
$var wire 1 ! clk $end
$var wire 1 " dataIn [7] $end
$var wire 1 # dataIn [6] $end
$var wire 1 $ dataIn [5] $end
$var wire 1 % dataIn [4] $end
$var wire 1 & dataIn [3] $end
$var wire 1 ' dataIn [2] $end
$var wire 1 ( dataIn [1] $end
$var wire 1 ) dataIn [0] $end
$var wire 1 * dataOut [7] $end
$var wire 1 + dataOut [6] $end
$var wire 1 , dataOut [5] $end
$var wire 1 - dataOut [4] $end
$var wire 1 . dataOut [3] $end
$var wire 1 / dataOut [2] $end
$var wire 1 0 dataOut [1] $end
$var wire 1 1 dataOut [0] $end
$var wire 1 2 wrEn $end

$scope module i1 $end
$var wire 1 3 gnd $end
$var wire 1 4 vcc $end
$var wire 1 5 unknown $end
$var wire 1 6 devoe $end
$var wire 1 7 devclrn $end
$var wire 1 8 devpor $end
$var wire 1 9 ww_devoe $end
$var wire 1 : ww_devclrn $end
$var wire 1 ; ww_devpor $end
$var wire 1 < ww_clk $end
$var wire 1 = ww_wrEn $end
$var wire 1 > ww_dataIn [7] $end
$var wire 1 ? ww_dataIn [6] $end
$var wire 1 @ ww_dataIn [5] $end
$var wire 1 A ww_dataIn [4] $end
$var wire 1 B ww_dataIn [3] $end
$var wire 1 C ww_dataIn [2] $end
$var wire 1 D ww_dataIn [1] $end
$var wire 1 E ww_dataIn [0] $end
$var wire 1 F ww_dataOut [7] $end
$var wire 1 G ww_dataOut [6] $end
$var wire 1 H ww_dataOut [5] $end
$var wire 1 I ww_dataOut [4] $end
$var wire 1 J ww_dataOut [3] $end
$var wire 1 K ww_dataOut [2] $end
$var wire 1 L ww_dataOut [1] $end
$var wire 1 M ww_dataOut [0] $end
$var wire 1 N \dataOut[0]~output_o\ $end
$var wire 1 O \dataOut[1]~output_o\ $end
$var wire 1 P \dataOut[2]~output_o\ $end
$var wire 1 Q \dataOut[3]~output_o\ $end
$var wire 1 R \dataOut[4]~output_o\ $end
$var wire 1 S \dataOut[5]~output_o\ $end
$var wire 1 T \dataOut[6]~output_o\ $end
$var wire 1 U \dataOut[7]~output_o\ $end
$var wire 1 V \clk~input_o\ $end
$var wire 1 W \dataIn[0]~input_o\ $end
$var wire 1 X \wrEn~input_o\ $end
$var wire 1 Y \dataOut[0]~reg0_q\ $end
$var wire 1 Z \dataIn[1]~input_o\ $end
$var wire 1 [ \dataOut[1]~reg0_q\ $end
$var wire 1 \ \dataIn[2]~input_o\ $end
$var wire 1 ] \dataOut[2]~reg0_q\ $end
$var wire 1 ^ \dataIn[3]~input_o\ $end
$var wire 1 _ \dataOut[3]~reg0_q\ $end
$var wire 1 ` \dataIn[4]~input_o\ $end
$var wire 1 a \dataOut[4]~reg0_q\ $end
$var wire 1 b \dataIn[5]~input_o\ $end
$var wire 1 c \dataOut[5]~reg0_q\ $end
$var wire 1 d \dataIn[6]~input_o\ $end
$var wire 1 e \dataOut[6]~reg0_q\ $end
$var wire 1 f \dataIn[7]~input_o\ $end
$var wire 1 g \dataOut[7]~reg0_q\ $end
$upscope $end
$upscope $end
$enddefinitions $end
#0
$dumpvars
0!
02
03
14
x5
16
17
18
19
1:
1;
0<
0=
0N
0O
0P
0Q
0R
0S
0T
0U
0V
1W
0X
0Y
1Z
0[
0\
0]
1^
0_
0`
0a
1b
0c
0d
0e
1f
0g
1"
0#
1$
0%
1&
0'
1(
1)
1>
0?
1@
0A
1B
0C
1D
1E
0F
0G
0H
0I
0J
0K
0L
0M
0*
0+
0,
0-
0.
0/
00
01
$end
#5000
1!
1<
1V
#10000
0!
0<
0V
#15000
1!
1<
1V
#20000
0!
12
0<
1=
1X
0V
#25000
1!
1<
1V
1Y
1[
1_
1c
1g
1U
1S
1Q
1O
1N
1F
1H
1J
1L
1M
11
10
1.
1,
1*
#30000
0!
0<
0V
#35000
1!
1<
1V
#40000
0!
0<
0V
#45000
1!
1<
1V
#50000
0!
0&
1'
0(
0<
0D
1C
0B
0^
1\
0Z
0V
#55000
1!
1<
1V
0[
1]
0_
0Q
1P
0O
0J
1K
0L
00
1/
0.
#60000
0!
0<
0V
#65000
1!
1<
1V
#70000
0!
0<
0V
#75000
1!
1<
1V
#80000
0!
0<
0V
#85000
1!
1<
1V
#90000
0!
0<
0V
#95000
1!
1<
1V
#100000
0!
1&
1(
1#
0$
0<
1D
1B
0@
1?
1d
0b
1^
1Z
0V
#105000
1!
1<
1V
1[
1_
0c
1e
1T
0S
1Q
1O
1G
0H
1J
1L
10
1.
0,
1+
#110000
0!
0<
0V
#115000
1!
1<
1V
#120000
0!
0<
0V
#125000
1!
1<
1V
#130000
0!
0<
0V
#135000
1!
1<
1V
#140000
0!
0<
0V
#145000
1!
1<
1V
#150000
0!
0)
0<
0E
0W
0V
#155000
1!
1<
1V
0Y
0N
0M
01
#160000
0!
0<
0V
#165000
1!
1<
1V
#170000
0!
0<
0V
#175000
1!
1<
1V
#180000
0!
0<
0V
#185000
1!
1<
1V
#190000
0!
0<
0V
#195000
1!
1<
1V
#200000
0!
1)
0&
0"
0<
1E
0B
0>
0f
0^
1W
0V
#205000
1!
1<
1V
1Y
0_
0g
0U
0Q
1N
0F
0J
1M
11
0.
0*
#210000
0!
0<
0V
#215000
1!
1<
1V
#220000
0!
0<
0V
#225000
1!
1<
1V
#230000
0!
0<
0V
#235000
1!
1<
1V
#240000
0!
0<
0V
#245000
1!
1<
1V
#250000
0!
0(
0#
1$
0'
1%
0<
0D
0C
1A
1@
0?
0d
1b
1`
0\
0Z
0V
#255000
1!
1<
1V
0[
0]
1a
1c
0e
0T
1S
1R
0P
0O
0G
1H
1I
0K
0L
00
0/
1-
1,
0+
#260000
0!
02
0<
0=
0X
0V
#265000
1!
1<
1V
#270000
0!
0<
0V
#275000
1!
1<
1V
#280000
0!
0<
0V
#285000
1!
1<
1V
#290000
0!
0<
0V
#295000
1!
1<
1V
#300000
0!
1(
1#
1"
0<
1D
1?
1>
1f
1d
1Z
0V
#305000
1!
1<
1V
#310000
0!
0<
0V
#315000
1!
1<
1V
#320000
0!
0<
0V
#325000
1!
1<
1V
#330000
0!
0<
0V
#335000
1!
1<
1V
#340000
0!
0<
0V
#345000
1!
1<
1V
#350000
0!
0$
0)
1&
0<
0E
1B
0@
0b
1^
0W
0V
#355000
1!
1<
1V
#360000
0!
0<
0V
#365000
1!
1<
1V
#370000
0!
0<
0V
#375000
1!
1<
1V
#380000
0!
0<
0V
#385000
1!
1<
1V
#390000
0!
0<
0V
#395000
1!
1<
1V
#400000
0!
1$
1)
0&
0#
0<
1E
0B
1@
0?
0d
1b
0^
1W
0V
#405000
1!
1<
1V
#410000
0!
0<
0V
#415000
1!
1<
1V
#420000
0!
12
0<
1=
1X
0V
#425000
1!
1<
1V
1[
1g
1U
1O
1F
1L
10
1*
#430000
0!
0<
0V
#435000
1!
1<
1V
#440000
0!
0<
0V
#445000
1!
1<
1V
#450000
0!
0$
0)
0(
0"
1'
0<
0E
0D
1C
0@
0>
0f
0b
1\
0Z
0W
0V
#455000
1!
1<
1V
0Y
0[
1]
0c
0g
0U
0S
1P
0O
0N
0F
0H
1K
0L
0M
01
00
1/
0,
0*
#460000
0!
0<
0V
#465000
1!
1<
1V
#470000
0!
0<
0V
#475000
1!
1<
1V
#480000
0!
0<
0V
#485000
1!
1<
1V
#490000
0!
0<
0V
#495000
1!
1<
1V
#500000
0!
1(
1"
1&
0<
1D
1B
1>
1f
1^
1Z
0V
#505000
1!
1<
1V
1[
1_
1g
1U
1Q
1O
1F
1J
1L
10
1.
1*
#510000
0!
0<
0V
#515000
1!
1<
1V
#520000
0!
0<
0V
#525000
1!
1<
1V
#530000
0!
0<
0V
#535000
1!
1<
1V
#540000
0!
0<
0V
#545000
1!
1<
1V
#550000
0!
0(
0"
1$
1)
0'
0<
1E
0D
0C
1@
0>
0f
1b
0\
0Z
1W
0V
#555000
1!
1<
1V
1Y
0[
0]
1c
0g
0U
1S
0P
0O
1N
0F
1H
0K
0L
1M
11
00
0/
1,
0*
#560000
0!
0<
0V
#565000
1!
1<
1V
#570000
0!
0<
0V
#575000
1!
1<
1V
#580000
0!
0<
0V
#585000
1!
1<
1V
#590000
0!
0<
0V
#595000
1!
1<
1V
#600000
0!
1(
0$
1'
0&
0%
0<
1D
1C
0B
0A
0@
0b
0`
0^
1\
1Z
0V
#605000
1!
1<
1V
1[
1]
0_
0a
0c
0S
0R
0Q
1P
1O
0H
0I
0J
1K
1L
10
1/
0.
0-
0,
#610000
0!
0<
0V
#615000
1!
1<
1V
#620000
0!
0<
0V
#625000
1!
1<
1V
#630000
0!
0<
0V
#635000
1!
1<
1V
#640000
0!
0<
0V
#645000
1!
1<
1V
#650000
0!
0'
1"
1#
0<
0C
1?
1>
1f
1d
0\
0V
#655000
1!
1<
1V
0]
1e
1g
1U
1T
0P
1F
1G
0K
0/
1+
1*
#660000
0!
0<
0V
#665000
1!
1<
1V
#670000
0!
0<
0V
#675000
1!
1<
1V
#680000
0!
0<
0V
#685000
1!
1<
1V
#690000
0!
0<
0V
#695000
1!
1<
1V
#700000
0!
0"
0#
0(
1$
02
0<
0D
1@
0?
0>
0=
0X
0f
0d
1b
0Z
0V
#705000
1!
1<
1V
#710000
0!
0<
0V
#715000
1!
1<
1V
#720000
0!
0<
0V
#725000
1!
1<
1V
#730000
0!
0<
0V
#735000
1!
1<
1V
#740000
0!
0<
0V
#745000
1!
1<
1V
#750000
0!
1(
0$
1'
1%
0)
0<
0E
1D
1C
1A
0@
0b
1`
1\
1Z
0W
0V
#755000
1!
1<
1V
#760000
0!
0<
0V
#765000
1!
1<
1V
#770000
0!
0<
0V
#775000
1!
1<
1V
#780000
0!
0<
0V
#785000
1!
1<
1V
#790000
0!
0<
0V
#795000
1!
1<
1V
#800000
0!
1)
1"
1#
1&
0<
1E
1B
1?
1>
1f
1d
1^
1W
0V
#805000
1!
1<
1V
#810000
0!
0<
0V
#815000
1!
1<
1V
#820000
0!
0<
0V
#825000
1!
1<
1V
#830000
0!
0<
0V
#835000
1!
1<
1V
#840000
0!
0<
0V
#845000
1!
1<
1V
#850000
0!
0"
0#
0&
0(
1$
0%
0<
0D
0B
0A
1@
0?
0>
0f
0d
1b
0`
0^
0Z
0V
#855000
1!
1<
1V
#860000
0!
0<
0V
#865000
1!
1<
1V
#870000
0!
0<
0V
#875000
1!
1<
1V
#880000
0!
0<
0V
#885000
1!
1<
1V
#890000
0!
0<
0V
#895000
1!
1<
1V
#900000
0!
1#
1&
1%
0)
0'
0<
0E
0C
1B
1A
1?
1d
1`
1^
0\
0W
0V
#905000
1!
1<
1V
#910000
0!
0<
0V
#915000
1!
1<
1V
#920000
0!
0<
0V
#925000
1!
1<
1V
#930000
0!
0<
0V
#935000
1!
1<
1V
#940000
0!
0<
0V
#945000
1!
1<
1V
#950000
0!
0&
0%
1)
1"
1(
0<
1E
1D
0B
0A
1>
1f
0`
0^
1Z
1W
0V
#955000
1!
1<
1V
#960000
0!
0<
0V
#965000
1!
1<
1V
#970000
0!
0<
0V
#975000
1!
1<
1V
#980000
0!
0<
0V
#985000
1!
1<
1V
#990000
0!
0<
0V
#995000
1!
1<
1V
